…
# load the insertion sites by Goodall, 2018, but omit all insertion sites beyond
# the 250th gene
truncated_is_pos <- is_pos[is_pos <= max(truncated_ecoli$end)]

# run ConNIS with weight = 1
results_ConNIS <- 
  ConNIS(ins.positions = truncated_is_pos, 
       gene.names = truncated_ecoli$gene, 
       gene.starts = truncated_ecoli$start, 
       gene.stops = truncated_ecoli$end, 
       genome.length = max(truncated_ecoli$end), 
       weight = 1)

results_ConNIS
#> # A tibble: 250 × 3
#>    gene  p_value weight_value
#>    <chr>   <dbl>        <dbl>
#>  1 thrL  0.446              1
#>  2 thrA  0.0827             1
#>  3 thrB  0.149              1
#>  4 thrC  0.00338            1
#>  5 yaaX  0.326              1
#>  6 yaaA  0.0102             1
#>  7 yaaJ  0.00917            1
#>  8 talB  0.0777             1
#>  9 mog   0.00893            1
#> 10 satP  0.0265             1
#> # ℹ 240 more rows
```
…
